@startjson fetch_transaction_response
{
  "data": {
    "type": "direct_debits",
    "version": 0,
    "created_on": "2022-03-17T15:05:11.319Z",
    "id": "7d9a5bd1-0b52-429f-9dc0-5ee7ccad5f3b",
    "modified_on": "2022-03-17T15:05:11.319Z",
    "organisation_id": "e66443a3-ec29-8f2f-c419-b580a4c7dd44",
    "attributes": {
      "amount": "1.00",
      "beneficiary_party": {
        "account_name": "Joe Doe",
        "account_number": "FR8512345678900001234567890",
        "account_number_code": "IBAN",
        "account_with": {
          "bank_id": "SDDDATG0",
          "bank_id_code": "SWBIC"
        },
        "address": [
          "123 Rue de la Madelaine",
          "69007 Lyon"
        ],
        "country": "FR",
        "name": "Jonathan Doe",
        "private_identification": {
          "identification": "t59ZzZ 0000096897870158"
        }
      },
      "ultimate_beneficiary": {
        "name": "Jane Doe",
        "address": [
          "123 Rue de la Madelaine",
          "69007 Lyon"
        ],
        "country": "FR",
        "private_identification": {
          "identification": "HJ8756",
          "identification_scheme_code": "CCPT",
          "identification_scheme": "ULTIMATE_BANK",
          "identification_issuer": "HM Passport Office"
        }
      },
      "currency": "EUR",
      "debtor_party": {
        "account_name": "Augusta Ada King Countess of Lovelace",
        "account_number": "FR7618206000103056966400117",
        "account_number_code": "IBAN",
        "account_with": {
          "bank_id": "SDDDITA1",
          "bank_id_code": "SWBIC"
        },
        "address": [
          "1 Clarence Mew, Horsforth",
          "Leeds Ls18 4EP"
        ],
        "country": "GB",
        "name": "Ada Lovelace"
      },
      "ultimate_debtor": {
        "name": "Ada Lovelace",
        "address": [
          "1 Clarence Mew, Horsforth",
          "Leeds Ls18 4EP"
        ],
        "country": "GB",
        "private_identification": {
          "identification": "DR74653",
          "identification_scheme_code": "CCPT",
          "identification_scheme": "ULTIMATE_BANK",
          "identification_issuer": "HM Passport Office"
        }
      },
      "instruction_id": "CIAO1",
      "end_to_end_reference": "REF-12-43452",
      "processing_date": "2022-03-17",
      "scheme_processing_date": "2022-03-17",
      "scheme_payment_type": "DirectDebitFirst",
      "payment_scheme": "SEPADDCORE",
      "scheme_transaction_id": "395536T41P311",
      "reference": "EBA Clearing - MANDAT001",
      "mandate_signature_date": "2020-09-20",
      "mandate_amendment_indicator": false,
      "category_purpose_coded": "CORT",
      "structured_reference": {
        "reference": "38463757034",
        "issuer": "Some Company"
      }
    },
    "relationships": {
      "direct_debit_admission": {
        "data": [
          {
            "created_on": "2022-03-17T15:05:11.457Z",
            "id": "03ca228e-7900-414b-9d11-39d69ece4aae",
            "modified_on": "2022-03-17T15:05:11.457Z",
            "organisation_id": "e66443a3-ec29-8f2f-c419-b580a4c7dd44",
            "type": "direct_debit_admissions",
            "version": 0,
            "attributes": {
              "admission_datetime": "2022-03-17T15:05:11.456Z",
              "status": "confirmed"
            }
          }
        ]
      }
    }
  }
}

@endjson